…
    ## filter(): dplyr, stats
    ## lag():    dplyr, stats

    library(babynames)

This code makes a table called "wind" by selecting only the origin, wind
direction, and wind speed columns from the weather dataset in
nycflights13.

    wind <- nycflights13::weather %>%
      select(origin, wind_dir, wind_speed)
    print(wind)

    ## # A tibble: 26,130 × 3
    ##    origin wind_dir wind_speed
    ##     <chr>    <dbl>      <dbl>
    ## 1     EWR      230   10.35702
    ## 2     EWR      230   13.80936
    ## 3     EWR      230   12.65858
    ## 4     EWR      230   13.80936
    ## 5     EWR      240   14.96014
    ## 6     EWR      270   10.35702
    ## 7     EWR      250    8.05546
    ## 8     EWR      240   11.50780
    ## 9     EWR      250   12.65858
    ## 10    EWR      260   12.65858
    ## # ... with 26,120 more rows
…
This code makes a new table of the median wind speed for each direction
at each airport. First, we group the data first by airport of origin and
and then by wind direction. Then we can calculate the median wind speed,
and it will be displayed as one median speed per wind direction per
airport.

    median_wind <- wind1 %>%
      group_by(origin, wind_dir) %>%
      summarise(med_speed = median(wind_speed, na.rm = TRUE))
    median_wind

    ## Source: local data frame [114 x 3]
    ## Groups: origin [?]
    ## 
    ##    origin wind_dir med_speed
    ##     <chr>    <dbl>     <dbl>
    ## 1     EWR        0   0.00000
    ## 2     EWR       10   9.20624
    ## 3     EWR       20   9.20624
    ## 4     EWR       30   9.20624
    ## 5     EWR       40  10.35702
    ## 6     EWR       50   8.05546
    ## 7     EWR       60   8.05546
    ## 8     EWR       70   6.90468
    ## 9     EWR       80   6.90468
    ## 10    EWR       90   6.32929
    ## # ... with 104 more rows
…
I want to find the number of planes manufactured by certain
manufacturers for each year. First, I group the data by the name of the
manufacturer and then by the year each plane was made. I then use the
summarise function to make a column counting the number of planes per
year per manufacturer. Then I arrange them in ascending order by year so
it is easy to read.

    planes_make <- nycflights13::planes %>%
      group_by(manufacturer, year) %>%
      summarise(n = n()) %>%
      select(manufacturer, year, n) %>%
      arrange(year)
    print(planes_make)

    ## Source: local data frame [164 x 3]
    ## Groups: manufacturer [35]
    ## 
    ##    manufacturer  year     n
    ##           <chr> <int> <int>
    ## 1       DOUGLAS  1956     1
    ## 2        CESSNA  1959     1
    ## 3   DEHAVILLAND  1959     1
    ## 4        CESSNA  1963     2
    ## 5        BOEING  1965     1
    ## 6         BEECH  1967     1
    ## 7         PIPER  1968     1
    ## 8         BEECH  1972     1
    ## 9        CESSNA  1973     1
    ## 10 CANADAIR LTD  1974     1
    ## # ... with 154 more rows

This code filters the table made above to include only planes
manufactured by Boeing, Airbus, and McDonnell Douglas.

    some_planes <- planes_make %>%
      filter(manufacturer == "BOEING"|manufacturer == "AIRBUS INDUSTRIE"|manufacturer == "MCDONNELL DOUGLAS")
    some_planes

    ## Source: local data frame [68 x 3]
    ## Groups: manufacturer [3]
    ## 
    ##         manufacturer  year     n
    ##                <chr> <int> <int>
    ## 1             BOEING  1965     1
    ## 2  MCDONNELL DOUGLAS  1975     1
    ## 3  MCDONNELL DOUGLAS  1976     1
    ## 4  MCDONNELL DOUGLAS  1977     1
    ## 5  MCDONNELL DOUGLAS  1978     1
    ## 6  MCDONNELL DOUGLAS  1979     3
    ## 7  MCDONNELL DOUGLAS  1980     1
    ## 8             BOEING  1984     5
    ## 9             BOEING  1985    19
    ## 10            BOEING  1986    14
    ## # ... with 58 more rows
…
